{
    "page": 1,
    "total_results": 6452,
    "total_pages": 323,
    "results": [
                {
                "vote_count": 78,
                "id": 374430,
                "video": false,
                "vote_average": 8.8,
                "title": "Black Mirror: White Christmas",
                "popularity": 3.055805,
                "poster_path": "/he609rnU3tiwBjRklKNa4n2jQSd.jpg",
                "original_language": "en",
                "original_title": "Black Mirror: White Christmas",
                "genre_ids": [
                              18,
                              27,
                              9648,
                              878,
                              53,
                              10770
                              ],
                "backdrop_path": "/rMCew7St2vy9iV3QOPzx15sAkFJ.jpg",
                "adult": false,
                "overview": "This feature-length special consists of three interwoven stories. In a mysterious and remote snow outpost, Matt and Potter share a Christmas meal, swapping creepy tales of their earlier lives in the outside world. Matt is a charismatic American trying to bring the reserved, secretive Potter out of his shell. But are both men who they appear to be? A woman gets thrust into a nightmarish world of 'smart' gadgetry. Plus a look at what would happen if you could 'block' people in real life.",
                "release_date": "2014-12-16"
                },
                {
                "vote_count": 305,
                "id": 19404,
                "video": false,
                "vote_average": 8.7,
                "title": "Dilwale Dulhania Le Jayenge",
                "popularity": 4.194123,
                "poster_path": "/2gvbZMtV1Zsl7FedJa5ysbpBx2G.jpg",
                "original_language": "gu",
                "original_title": "Dilwale Dulhania Le Jayenge",
                "genre_ids": [
                              35,
                              18,
                              10749
                              ],
                "backdrop_path": "/nl79FQ8xWZkhL3rDr1v2RFFR6J0.jpg",
                "adult": false,
                "overview": "Raj is a rich, carefree, happy-go-lucky second generation NRI. Simran is the daughter of Chaudhary Baldev Singh, who in spite of being an NRI is very strict about adherence to Indian values. Simran has left for India to be married to her childhood fiancé. Raj leaves for India with a mission at his hands, to claim his lady love under the noses of her whole family. Thus begins a saga.",
                "release_date": "1995-10-19"
                },
                {
                "vote_count": 7479,
                "id": 278,
                "video": false,
                "vote_average": 8.5,
                "title": "The Shawshank Redemption",
                "popularity": 9.323831,
                "poster_path": "/9O7gLzmreU0nGkIB6K3BsJbzvNv.jpg",
                "original_language": "en",
                "original_title": "The Shawshank Redemption",
                "genre_ids": [
                              18,
                              80
                              ],
                "backdrop_path": "/j9XKiZrVeViAixVRzCta7h1VU9W.jpg",
                "adult": false,
                "overview": "Framed in the 1940s for the double murder of his wife and her lover, upstanding banker Andy Dufresne begins a new life at the Shawshank prison, where he puts his accounting skills to work for an amoral warden. During his long stretch in prison, Dufresne comes to be admired by the other inmates -- including an older prisoner named Red -- for his integrity and unquenchable sense of hope.",
                "release_date": "1994-09-23"
                },
                {
                "vote_count": 590,
                "id": 372058,
                "video": false,
                "vote_average": 8.5,
                "title": "Your Name.",
                "popularity": 4.458154,
                "poster_path": "/xq1Ugd62d23K2knRUx6xxuALTZB.jpg",
                "original_language": "ja",
                "original_title": "君の名は。",
                "genre_ids": [
                              16,
                              18,
                              14,
                              10749
                              ],
                "backdrop_path": "/6vkhRvsRvWpmaRVyCXaxTkIEb7j.jpg",
                "adult": false,
                "overview": "High schoolers Mitsuha and Taki are complete strangers living separate lives. But one night, they suddenly switch places. Mitsuha wakes up in Taki’s body, and he in hers. This bizarre occurrence continues to happen randomly, and the two must adjust their lives around each other.",
                "release_date": "2016-08-26"
                },
                {
                "vote_count": 5274,
                "id": 238,
                "video": false,
                "vote_average": 8.4,
                "title": "The Godfather",
                "popularity": 6.80639,
                "poster_path": "/rPdtLWNsZmAtoZl9PK7S2wE3qiS.jpg",
                "original_language": "en",
                "original_title": "The Godfather",
                "genre_ids": [
                              18,
                              80
                              ],
                "backdrop_path": "/6xKCYgH16UuwEGAyroLU6p8HLIn.jpg",
                "adult": false,
                "overview": "Spanning the years 1945 to 1955, a chronicle of the fictional Italian-American Corleone crime family. When organized crime family patriarch, Vito Corleone barely survives an attempt on his life, his youngest son, Michael steps in to take care of the would-be killers, launching a campaign of bloody revenge.",
                "release_date": "1972-03-14"
                },
                {
                "vote_count": 84,
                "id": 360814,
                "video": false,
                "vote_average": 8.4,
                "title": "Dangal",
                "popularity": 2.776778,
                "poster_path": "/5PDT64gtbmH10gK5AYR7LZh5PQk.jpg",
                "original_language": "hi",
                "original_title": "दंगल",
                "genre_ids": [
                              18
                              ],
                "backdrop_path": "/mFCEeEjRfU2WU9vv5ApXJLzKxy7.jpg",
                "adult": false,
                "overview": "Dangal is an extraordinary true story based on the life of Mahavir Singh and his two daughters, Geeta and Babita Phogat. The film traces the inspirational journey of a father who trains his daughters to become world class wrestlers.",
                "release_date": "2016-12-23"
                },
                {
                "vote_count": 3534,
                "id": 244786,
                "video": false,
                "vote_average": 8.3,
                "title": "Whiplash",
                "popularity": 14.571697,
                "poster_path": "/lIv1QinFqz4dlp5U4lQ6HaiskOZ.jpg",
                "original_language": "en",
                "original_title": "Whiplash",
                "genre_ids": [
                              10402,
                              18
                              ],
                "backdrop_path": "/6bbZ6XyvgfjhQwbplnUh1LSj1ky.jpg",
                "adult": false,
                "overview": "Under the direction of a ruthless instructor, a talented young drummer begins to pursue perfection at any cost, even his humanity.",
                "release_date": "2014-10-10"
                },
                {
                "vote_count": 3739,
                "id": 424,
                "video": false,
                "vote_average": 8.3,
                "title": "Schindler's List",
                "popularity": 5.93028,
                "poster_path": "/yPisjyLweCl1tbgwgtzBCNCBle.jpg",
                "original_language": "en",
                "original_title": "Schindler's List",
                "genre_ids": [
                              18,
                              36,
                              10752
                              ],
                "backdrop_path": "/rIpSszng8P0DL0TimSzZbpfnvh1.jpg",
                "adult": false,
                "overview": "The true story of how businessman Oskar Schindler saved over a thousand Jewish lives from the Nazis while they worked as slaves in his factory during World War II.",
                "release_date": "1993-11-29"
                },
                {
                "vote_count": 3229,
                "id": 129,
                "video": false,
                "vote_average": 8.2,
                "title": "Spirited Away",
                "popularity": 4.939954,
                "poster_path": "/ynXoOxmDHNQ4UAy0oU6avW71HVW.jpg",
                "original_language": "ja",
                "original_title": "千と千尋の神隠し",
                "genre_ids": [
                              14,
                              12,
                              16,
                              10751
                              ],
                "backdrop_path": "/mnpRKVSXBX6jb56nabvmGKA0Wig.jpg",
                "adult": false,
                "overview": "A ten year old girl who wanders away from her parents along a path that leads to a world ruled by strange and unusual monster-like animals. Her parents have been changed into pigs along with others inside a bathhouse full of these creatures. Will she ever see the world how it once was?",
                "release_date": "2001-07-20"
                },
                {
                "vote_count": 2936,
                "id": 240,
                "video": false,
                "vote_average": 8.2,
                "title": "The Godfather: Part II",
                "popularity": 5.510937,
                "poster_path": "/bVq65huQ8vHDd1a4Z37QtuyEvpA.jpg",
                "original_language": "en",
                "original_title": "The Godfather: Part II",
                "genre_ids": [
                              18,
                              80
                              ],
                "backdrop_path": "/gLbBRyS7MBrmVUNce91Hmx9vzqI.jpg",
                "adult": false,
                "overview": "In the continuing saga of the Corleone crime family, a young Vito Corleone grows up in Sicily and in 1910s New York. In the 1950s, Michael Corleone attempts to expand the family business into Las Vegas, Hollywood and Cuba.",
                "release_date": "1974-12-20"
                },
                {
                "vote_count": 140,
                "id": 432517,
                "video": false,
                "vote_average": 8.2,
                "title": "Sherlock: The Final Problem",
                "popularity": 3.083739,
                "poster_path": "/ySiqbi1sW7imVYbtECZS0xQ3Hmj.jpg",
                "original_language": "en",
                "original_title": "Sherlock: The Final Problem",
                "genre_ids": [
                              9648,
                              18
                              ],
                "backdrop_path": "/3nXbWFPFGvjSE5bw8G6bBLVIzow.jpg",
                "adult": false,
                "overview": "Long buried secrets finally come to light as someone has been playing a very long game indeed. Sherlock and John face their greatest ever challenge. Is the game finally over?",
                "release_date": "2017-01-15"
                },
                {
                "vote_count": 157,
                "id": 18148,
                "video": false,
                "vote_average": 8.2,
                "title": "Tokyo Story",
                "popularity": 2.657344,
                "poster_path": "/mMlPycVtj0bYZvTBpHe5BpVBk2S.jpg",
                "original_language": "ja",
                "original_title": "東京物語",
                "genre_ids": [
                              18
                              ],
                "backdrop_path": "/m55rLpSklCkBmYhhLuZZhhesWFW.jpg",
                "adult": false,
                "overview": "An old couple visit their children and grandchildren in the city, but the children have little time for them.",
                "release_date": "1953-11-03"
                },
                {
                "vote_count": 8063,
                "id": 550,
                "video": false,
                "vote_average": 8.2,
                "title": "Fight Club",
                "popularity": 9.886713,
                "poster_path": "/adw6Lq9FiC9zjYEpOqfq03ituwp.jpg",
                "original_language": "en",
                "original_title": "Fight Club",
                "genre_ids": [
                              18
                              ],
                "backdrop_path": "/87hTDiay2N2qWyX4Ds7ybXi9h8I.jpg",
                "adult": false,
                "overview": "A ticking-time-bomb insomniac and a slippery soap salesman channel primal male aggression into a shocking new form of therapy. Their concept catches on, with underground \"fight clubs\" forming in every town, until an eccentric gets in the way and ignites an out-of-control spiral toward oblivion.",
                "release_date": "1999-10-15"
                },
                {
                "vote_count": 7401,
                "id": 680,
                "video": false,
                "vote_average": 8.2,
                "title": "Pulp Fiction",
                "popularity": 12.465831,
                "poster_path": "/dM2w364MScsjFf8pfMbaWUcWrR.jpg",
                "original_language": "en",
                "original_title": "Pulp Fiction",
                "genre_ids": [
                              53,
                              80
                              ],
                "backdrop_path": "/mte63qJaVnoxkkXbHkdFujBnBgd.jpg",
                "adult": false,
                "overview": "A burger-loving hit man, his philosophical partner, a drug-addled gangster's moll and a washed-up boxer converge in this sprawling, comedic crime caper. Their adventures unfurl in three stories that ingeniously trip back and forth in time.",
                "release_date": "1994-10-08"
                },
                {
                "vote_count": 2883,
                "id": 637,
                "video": false,
                "vote_average": 8.2,
                "title": "Life Is Beautiful",
                "popularity": 5.904009,
                "poster_path": "/f7DImXDebOs148U4uPjI61iDvaK.jpg",
                "original_language": "it",
                "original_title": "La vita è bella",
                "genre_ids": [
                              35,
                              18
                              ],
                "backdrop_path": "/bORe0eI72D874TMawOOFvqWS6Xe.jpg",
                "adult": false,
                "overview": "A touching story of an Italian book seller of Jewish ancestry who lives in his own little fairy tale. His creative and happy life would come to an abrupt halt when his entire family is deported to a concentration camp during World War II. While locked up he tries to convince his son that the whole thing is just a game.",
                "release_date": "1997-12-20"
                },
                {
                "vote_count": 75,
                "id": 16672,
                "video": false,
                "vote_average": 8.2,
                "title": "Woman in the Dunes",
                "popularity": 2.876163,
                "poster_path": "/dxAu4vdkBrUHoXuGT0ZbKh0weoQ.jpg",
                "original_language": "ja",
                "original_title": "砂の女",
                "genre_ids": [
                              18,
                              53
                              ],
                "backdrop_path": "/5u6EuPA6G6zWjjMKqMWEWEcEegy.jpg",
                "adult": false,
                "overview": "Jumpei Niki, a Tokyo based entomologist and educator, is in a poor seaside village collecting specimens of sand insects. As it is late in the day and as he has missed the last bus back to the city, some of the local villagers suggest that he spend the night there, they offering to find him a place to stay.",
                "release_date": "1964-02-15"
                },
                {
                "vote_count": 10602,
                "id": 155,
                "video": false,
                "vote_average": 8.2,
                "title": "The Dark Knight",
                "popularity": 11.15824,
                "poster_path": "/1hRoyzDtpgMU7Dz4JF22RANzQO7.jpg",
                "original_language": "en",
                "original_title": "The Dark Knight",
                "genre_ids": [
                              18,
                              28,
                              80,
                              53
                              ],
                "backdrop_path": "/nnMC0BM6XbjIIrT4miYmMtPGcQV.jpg",
                "adult": false,
                "overview": "Batman raises the stakes in his war on crime. With the help of Lt. Jim Gordon and District Attorney Harvey Dent, Batman sets out to dismantle the remaining criminal organizations that plague the streets. The partnership proves to be effective, but they soon find themselves prey to a reign of chaos unleashed by a rising criminal mastermind known to the terrified citizens of Gotham as the Joker.",
                "release_date": "2008-07-16"
                },
                {
                "vote_count": 2739,
                "id": 769,
                "video": false,
                "vote_average": 8.2,
                "title": "GoodFellas",
                "popularity": 5.787221,
                "poster_path": "/hAPeXBdGDGmXRPj4OZZ0poH65Iu.jpg",
                "original_language": "en",
                "original_title": "GoodFellas",
                "genre_ids": [
                              18,
                              80
                              ],
                "backdrop_path": "/xDEOxA01480uLTWuvQCw61VmDBt.jpg",
                "adult": false,
                "overview": "The true story of Henry Hill, a half-Irish, half-Sicilian Brooklyn kid who is adopted by neighbourhood gangsters at an early age and climbs the ranks of a Mafia family under the guidance of Jimmy Conway.",
                "release_date": "1990-09-12"
                },
                {
                "vote_count": 2471,
                "id": 510,
                "video": false,
                "vote_average": 8.2,
                "title": "One Flew Over the Cuckoo's Nest",
                "popularity": 4.715993,
                "poster_path": "/2Sns5oMb356JNdBHgBETjIpRYy9.jpg",
                "original_language": "en",
                "original_title": "One Flew Over the Cuckoo's Nest",
                "genre_ids": [
                              18
                              ],
                "backdrop_path": "/mtJrV7i76PtXJMmWz3tu6dWav6n.jpg",
                "adult": false,
                "overview": "While serving time for insanity at a state mental hospital, implacable rabble-rouser, Randle Patrick McMurphy inspires his fellow patients to rebel against the authoritarian rule of head nurse, Mildred Ratched.",
                "release_date": "1975-11-18"
                },
                {
                "vote_count": 6720,
                "id": 13,
                "video": false,
                "vote_average": 8.2,
                "title": "Forrest Gump",
                "popularity": 9.727565,
                "poster_path": "/yE5d3BUhE8hCnkMUJOo1QDoOGNz.jpg",
                "original_language": "en",
                "original_title": "Forrest Gump",
                "genre_ids": [
                              35,
                              18,
                              10749
                              ],
                "backdrop_path": "/ctOEhQiFIHWkiaYp7b0ibSTe5IL.jpg",
                "adult": false,
                "overview": "A man with a low IQ has accomplished great things in his life and been present during significant historic events - in each case, far exceeding what anyone imagined he could do. Yet, despite all the things he has attained, his one true love eludes him. 'Forrest Gump' is the story of a man who rose above his challenges, and who proved that determination, courage, and love are more important than ability.",
                "release_date": "1994-07-06"
                }
                ]
}
